<?xml version="1.0" encoding="UTF-8" standalone="no"?>
<svg
   xmlns:dc="http://purl.org/dc/elements/1.1/"
   xmlns:cc="http://creativecommons.org/ns#"
   xmlns:rdf="http://www.w3.org/1999/02/22-rdf-syntax-ns#"
   xmlns:svg="http://www.w3.org/2000/svg"
   xmlns="http://www.w3.org/2000/svg"
   xmlns:sodipodi="http://sodipodi.sourceforge.net/DTD/sodipodi-0.dtd"
   xmlns:inkscape="http://www.inkscape.org/namespaces/inkscape"
   width="16"
   height="16"
   version="1.1"
   id="svg8"
   sodipodi:docname="numlock.svg"
   inkscape:version="0.92.4 (5da689c313, 2019-01-14)">
  <metadata
     id="metadata14">
    <rdf:RDF>
      <cc:Work
         rdf:about="">
        <dc:format>image/svg+xml</dc:format>
        <dc:type
           rdf:resource="http://purl.org/dc/dcmitype/StillImage" />
      </cc:Work>
    </rdf:RDF>
  </metadata>
  <defs
     id="defs12" />
  <sodipodi:namedview
     pagecolor="#ffffff"
     bordercolor="#666666"
     borderopacity="1"
     objecttolerance="10"
     gridtolerance="10"
     guidetolerance="10"
     inkscape:pageopacity="0"
     inkscape:pageshadow="2"
     inkscape:window-width="1440"
     inkscape:window-height="847"
     id="namedview10"
     showgrid="false"
     inkscape:zoom="41.7193"
     inkscape:cx="6.1325684"
     inkscape:cy="11.162391"
     inkscape:window-x="0"
     inkscape:window-y="25"
     inkscape:window-maximized="1"
     inkscape:current-layer="svg8" />
  <g
     id="g6">
    <path
       style="fill:#444444"
       d="M 3.0004,0 A 2.0001,2.0002 0 0 0 1.0122,1.779 L 0.01222,10.779 A 2.0001,2.0002 0 0 0 2.0004,13 H 14 A 2.0001,2.0002 0 0 0 15.988,10.779 L 14.988,1.779 A 2.0001,2.0002 0 0 0 13,0 Z M 9,2 V 4 9 H 11 V 11 H 5.0003 V 9 H 7 V 4.5 L 5.0003,5 V 3 Z"
       id="path2" />
    <path
       style="fill:#444444"
       d="M 5.2738e-4,13.203 V 13.75 C 5.2738e-4,14.962 1.0386,16 2.2504,16 H 13.75 C 14.962,16 16,14.962 16,13.75 V 13.203 C 15.468,13.688 14.775,14 14,14 H 2.0004 C 1.2258,14 0.53212,13.688 5.2738e-4,13.203 Z"
       id="path4" />
  </g>
  <path
     style="fill:#0000ff;stroke-width:0.06779661"
     d="M 1.3155932,12.844478 C 1.1236827,12.776763 0.86819492,12.594296 0.62557105,12.351673 0.31890541,12.045007 0.21608197,11.884751 0.121627,11.566249 L 0.00295938,11.166102 0.53071788,6.3866778 C 0.91421708,2.9136777 1.0933934,1.5139299 1.1862169,1.2658367 1.3328003,0.87405749 1.7426005,0.44464585 2.1966102,0.20709005 L 2.5016949,0.04745763 h 5.4915254 5.4915257 l 0.316777,0.15753777 c 0.174228,0.0866458 0.430173,0.26766539 0.568766,0.40226581 0.516033,0.50116489 0.509296,0.46620249 1.080964,5.60968799 0.312081,2.8079044 0.506321,4.8167948 0.485891,5.0252478 -0.06742,0.687891 -0.572415,1.332295 -1.239738,1.581972 -0.363637,0.136054 -0.484428,0.138447 -6.7236779,0.13319 -5.6183079,-0.0047 -6.3886479,-0.01779 -6.6581349,-0.112881 z M 11.010169,10.013559 V 8.9627119 H 10.027119 9.0440678 V 5.4711864 c 0,-1.9203389 -0.022881,-3.4906505 -0.050847,-3.4895813 -0.027966,0.00107 -0.9355932,0.2241261 -2.0169491,0.4956819 L 5.0101695,2.9710248 4.9914452,4.0025039 4.9727208,5.0339829 5.1609367,4.9909858 C 5.5122564,4.9107285 6.7044746,4.6175424 6.8237288,4.5820779 6.9350169,4.5489825 6.9423729,4.6836923 6.9423729,6.7547532 V 8.9627119 H 5.959322 4.9762712 v 1.0056495 c 0,0.5531076 0.020339,1.0259896 0.045198,1.0508476 0.024859,0.02486 1.3824859,0.0452 3.0169494,0.0452 h 2.9717504 z"
     id="path16"
     inkscape:connector-curvature="0" />
  <path
     style="fill:#ffffff;stroke-width:0.06779661"
     d="M 1.5544902,19.20864 C 0.96374845,18.995817 0.43437056,18.509761 0.18790398,17.95389 0.10764817,17.772884 0.0355012,17.432694 0.01710726,17.148542 l -0.03184625,-0.491965 0.39055048,0.235177 c 0.84715131,0.510128 0.3271036,0.477566 7.62733741,0.477566 6.5256091,0 6.5433571,-3.73e-4 6.9266341,-0.145453 0.211344,-0.08 0.524056,-0.241635 0.694915,-0.35919 l 0.310654,-0.213735 v 0.407493 c 0,0.824148 -0.498121,1.631034 -1.252895,2.029516 l -0.340325,0.179674 -6.2711864,0.01469 c -5.0124501,0.01174 -6.3204162,-0.003 -6.5164554,-0.07367 z"
     id="path18"
     inkscape:connector-curvature="0" />
  <path
     style="fill:#ffffff;stroke-width:0.06779661"
     d="M 5.0440678,10.013559 V 9.0305085 H 6.0271186 7.0101695 V 6.759322 c 0,-1.2491525 -0.017039,-2.2711864 -0.037864,-2.2711864 -0.040483,0 -1.610898,0.3890732 -1.8095936,0.4483303 C 5.0535894,4.9690096 5.0440678,4.8938489 5.0440678,3.9999302 V 3.0280113 l 1.8813559,-0.46673 C 7.9601695,2.3045799 8.8449153,2.0806912 8.8915254,2.063751 c 0.0671,-0.024387 0.084746,0.6977264 0.084746,3.4679786 V 9.0305085 H 9.959322 10.942373 V 10.013559 10.99661 H 7.9932203 5.0440678 Z"
     id="path20"
     inkscape:connector-curvature="0" />
  <path
     style="fill:#0000ff;stroke-width:0.02396972"
     d="M 1.8147751,15.941774 C 1.4009757,15.854447 1.0127638,15.641593 0.69887426,15.329933 0.39767587,15.030875 0.21683425,14.733208 0.09838448,14.341521 0.04165996,14.153946 0.03340131,14.08048 0.02357358,13.676024 l -0.01104728,-0.454645 0.10074172,0.09101 c 0.2329742,0.210478 0.64611977,0.439879 1.00068648,0.555636 0.4591895,0.149914 -0.021652,0.139131 6.6341732,0.14877 6.2930153,0.0091 6.5360223,0.006 6.9343783,-0.08981 0.382306,-0.09192 0.828244,-0.311076 1.134096,-0.557357 0.07777,-0.06262 0.146736,-0.113856 0.153261,-0.113856 0.02278,0 0.01166,0.711461 -0.01333,0.852515 -0.15976,0.90198 -0.886694,1.649569 -1.784097,1.83479 -0.207506,0.04283 -0.454913,0.04456 -6.1846131,0.04324 -5.6542458,-0.0013 -5.9792314,-0.0036 -6.1730498,-0.04455 z"
     id="path22"
     inkscape:connector-curvature="0" />
  <path
     style="fill:#1050ff;stroke-width:0.02396972;fill-opacity:1"
     d="M 2.4628041,12.918362 C 1.4006272,12.894211 1.3336167,12.881969 0.99042613,12.64939 0.79561809,12.51737 0.42845096,12.148686 0.31135256,11.967512 0.21910485,11.824787 0.05550461,11.377091 0.02769431,11.191275 0.02104395,11.14684 0.18350346,9.6003922 0.38871546,7.7547236 1.0198865,2.077996 1.0972175,1.485717 1.249358,1.1630503 1.4265382,0.78727828 1.8032274,0.42549994 2.2696177,0.18317651 l 0.259287,-0.1347183 h 5.4684798 5.4684795 l 0.221241,0.11107978 c 0.121683,0.0610939 0.285959,0.15463137 0.365059,0.20786107 0.185756,0.12500243 0.523696,0.45317381 0.599019,0.58170283 0.129442,0.22087561 0.221404,0.60094151 0.333058,1.37647981 0.176742,1.2276242 0.804211,6.9848483 0.914996,8.3953733 0.03507,0.446491 0.03538,0.515433 0.003,0.674182 -0.11812,0.579218 -0.508587,1.075903 -1.065066,1.354792 -0.220686,0.110601 -0.419048,0.147172 -0.927734,0.17104 -0.539576,0.02532 -10.3164283,0.02309 -11.4466349,-0.0026 z M 11.014251,10.01387 11.00801,8.9532097 10.031244,8.9469483 9.0544775,8.9406872 9.0528046,6.2863093 C 9.0512231,3.7767461 9.0307918,2.0062696 9.0030936,1.9785712 8.9931399,1.9686177 5.031991,2.9423931 5.009301,2.9603716 4.998826,2.9686714 4.9603055,5.0214184 4.9704212,5.0322659 4.981715,5.0443766 5.4236992,4.9417877 6.2438503,4.73669 6.7771382,4.603329 6.8524837,4.5896873 6.8790479,4.6216833 c 0.023593,0.028418 0.031651,0.5013874 0.037099,2.1776523 l 0.00696,2.1413499 -0.9777336,0.00626 -0.9777333,0.00626 -0.00661,0.4074853 c -0.008,0.4936504 0.028332,1.6356692 0.05282,1.6602252 0.030299,0.03038 1.0190712,0.04397 3.5554853,0.04887 l 2.4511527,0.0047 z"
     id="path24"
     inkscape:connector-curvature="0" />
  <path
     style="fill:#1050ff;fill-opacity:1;stroke-width:0.02396972"
     d="M 4.5409789,15.963817 C 1.5271631,15.948722 1.7681298,15.963139 1.3621425,15.773618 1.099867,15.651184 0.90732033,15.516734 0.69822741,15.310025 0.49208103,15.106229 0.35023497,14.904287 0.22540631,14.636882 0.07926491,14.323822 0.0563617,14.207099 0.04146583,13.699454 l -0.01335654,-0.455186 0.10143566,0.09164 c 0.23299917,0.210501 0.65707846,0.435604 1.06765785,0.566717 l 0.2396972,0.07654 0.7910008,0.0228 c 1.1641945,0.03356 12.0585772,0.01225 12.2605122,-0.02399 0.413919,-0.07428 0.918246,-0.294763 1.268862,-0.554728 0.106458,-0.07893 0.200525,-0.143517 0.209037,-0.143517 0.03142,0 -0.01326,0.82596 -0.05316,0.982759 -0.05235,0.20571 -0.223249,0.567335 -0.356107,0.753518 -0.199845,0.280058 -0.53509,0.570438 -0.83524,0.723461 -0.06279,0.03201 -0.213801,0.09256 -0.335576,0.134547 l -0.221411,0.07634 -1.593986,0.01644 c -1.762814,0.01818 -3.9664102,0.01736 -8.0298571,-0.003 z"
     id="path834"
     inkscape:connector-curvature="0" />
</svg>
